DepartmentID,Name,ID,VenueID,Bulb
2,Fresnel,70001,1,500
2,Fresnel,70002,1,500
2,Fresnel,70003,1,500
2,Fresnel,70004,1,500
2,Fresnel,70005,1,500
2,Fresnel,70006,1,500
2,Fresnel,70007,1,500
2,Fresnel,70008,1,500
2,Fresnel,70009,1,500
2,Fresnel,70010,1,500
2,Fresnel,70011,1,500
2,Fresnel,70012,1,500
2,Fresnel,70013,1,500
2,Fresnel,70014,1,500
2,Fresnel,70015,1,500
2,Fresnel,70016,2,500
2,Fresnel,70017,2,500
2,Fresnel,70018,2,500
2,Fresnel,70019,2,500
2,Fresnel,70020,2,500
2,Fresnel,70021,2,500
2,Fresnel,70022,2,500
2,Fresnel,70023,2,500
2,Fresnel,70024,2,500
2,Fresnel,70025,2,500
2,Fresnel,70026,2,500
2,Fresnel,70027,2,500
2,Fresnel,70028,2,500
2,Fresnel,70029,2,500
2,Fresnel,70030,2,500
2,Fresnel,70031,2,500
2,Fresnel,70032,3,500
2,Fresnel,70033,3,500
2,Fresnel,70034,3,500
2,Fresnel,70035,3,500
2,Fresnel,70036,3,500
2,Fresnel,70037,3,500
2,Fresnel,70038,3,500
2,Fresnel,70039,3,500
2,Fresnel,70040,3,500
2,Fresnel,70041,3,500
2,Fresnel,70042,3,500
2,Fresnel,70043,3,500
2,Fresnel,70044,3,500
2,Fresnel,70045,3,500
2,Fresnel,70046,3,500
2,Fresnel,70047,3,500
2,Fresnel,70048,3,500
2,Fresnel,70049,3,500
2,Fresnel,70050,3,500
2,Source-4,70051,1,500
2,Source-4,70052,1,500
2,Source-4,70053,1,500
2,Source-4,70054,1,500
2,Source-4,70055,1,500
2,Source-4,70056,1,500
2,Source-4,70057,1,500
2,Source-4,70058,1,500
2,Source-4,70059,1,500
2,Source-4,70060,1,500
2,Source-4,70061,1,500
2,Source-4,70062,1,500
2,Source-4,70063,1,500
2,Source-4,70064,1,500
2,Source-4,70065,1,500
2,Source-4,70066,1,500
2,Source-4,70067,1,500
2,Source-4,70068,1,500
2,Source-4,70069,1,500
2,Source-4,70070,1,500
2,Source-4,70071,1,500
2,Source-4,70072,1,500
2,Source-4,70073,1,500
2,Source-4,70074,1,500
2,Source-4,70075,1,500
2,Source-4,70076,1,500
2,Source-4,70077,1,500
2,Source-4,70078,1,500
2,Source-4,70079,1,500
2,Source-4,70080,1,500
2,Source-4,70081,1,500
2,Source-4,70082,1,500
2,Source-4,70083,1,500
2,Source-4,70084,1,500
2,Source-4,70085,1,500
2,Source-4,70086,1,500
2,Source-4,70087,1,500
2,Source-4,70088,2,500
2,Source-4,70089,2,500
2,Source-4,70090,2,500
2,Source-4,70091,2,500
2,Source-4,70092,2,500
2,Source-4,70093,2,500
2,Source-4,70094,2,500
2,Source-4,70095,2,500
2,Source-4,70096,2,500
2,Source-4,70097,2,500
2,Source-4,70098,2,500
2,Source-4,70099,2,500
2,Source-4,70100,2,500
2,Source-4,70101,2,500
2,Source-4,70102,2,500
2,Source-4,70103,2,500
2,Source-4,70104,2,500
2,Source-4,70105,2,500
2,Source-4,70106,2,500
2,Source-4,70107,2,500
2,Source-4,70108,2,500
2,Source-4,70109,2,500
2,Source-4,70110,2,500
2,Source-4,70111,2,500
2,Source-4,70112,2,500
2,Source-4,70113,2,500
2,Source-4,70114,2,500
2,Source-4,70115,2,500
2,Source-4,70116,2,500
2,Source-4,70117,2,500
2,Source-4,70118,2,500
2,Source-4,70119,2,500
2,Source-4,70120,2,500
2,Source-4,70121,2,500
2,Source-4,70122,2,500
2,Source-4,70123,2,500
2,Source-4,70124,2,500
2,Source-4,70125,2,500
2,Source-4,70126,2,500
2,Source-4,70127,2,500
2,Source-4,70128,2,500
2,Source-4,70129,1,500
2,Source-4,70130,1,500
2,Source-4,70131,1,500
2,Source-4,70132,1,500
2,Source-4,70133,1,500
2,Source-4,70134,1,500
2,Source-4,70135,1,500
2,Source-4,70136,1,500
2,Source-4,70137,1,500
2,Source-4,70138,1,500
2,Source-4,70139,1,500
2,Source-4,70140,1,500
2,Source-4,70141,1,500
2,Source-4,70142,1,500
2,Source-4,70143,1,500
2,Source-4,70144,1,500
2,Source-4,70145,1,500
2,Source-4,70146,1,500
2,Source-4,70147,1,500
2,Source-4,70148,1,500
2,Source-4,70149,1,500
2,Source-4,70150,1,500
2,Source-4,70151,1,500
2,Source-4,70152,1,500
2,Source-4,70153,1,500
2,Source-4,70154,1,500
2,Source-4,70155,1,500
2,Source-4,70156,1,500
2,Source-4,70157,1,500
2,Source-4,70158,1,500
2,Source-4,70159,1,500
2,Source-4,70160,1,500
2,Source-4,70161,2,500
2,Source-4,70162,2,500
2,Source-4,70163,2,500
2,Source-4,70164,2,500
2,Source-4,70165,2,500
2,Source-4,70166,2,500
2,Source-4,70167,2,500
2,Source-4,70168,2,500
2,Source-4,70169,2,500
2,Source-4,70170,2,500
2,Source-4,70171,2,500
2,Source-4,70172,2,500
2,Source-4,70173,2,500
2,Source-4,70174,2,500
2,Source-4,70175,2,500
2,Source-4,70176,2,500
2,Source-4,70177,2,500
2,Source-4,70178,2,500
2,Source-4,70179,2,500
2,Source-4,70180,2,500
2,Source-4,70181,2,500
2,Source-4,70182,2,500
2,Source-4,70183,1,LED
2,Source-4,70184,1,LED
2,Source-4,70185,1,LED
2,Source-4,70186,1,LED
2,Source-4,70187,1,LED
2,Source-4,70188,1,LED
2,Source-4,70189,1,LED
2,Source-4,70190,1,LED
2,Source-4,70191,1,LED
2,Source-4,70192,1,LED
2,Source-4,70193,1,LED
2,Source-4,70194,1,LED
2,Source-4,70195,1,LED
2,Source-4,70196,2,LED
2,Source-4,70197,2,LED
2,Source-4,70198,2,LED
2,Source-4,70199,2,LED
2,Source-4,70200,2,LED
2,Source-4,70201,2,LED
2,Source-4,70202,2,LED
2,Source-4,70203,2,LED
2,Source-4,70204,2,LED
2,Source-4,70205,2,LED
2,Source-4,70206,2,LED
2,Source-4,70207,2,LED
2,Source-4,70208,2,LED
2,Source-4,70209,2,LED
2,Source-4,70210,2,LED
2,Source-4,70211,3,LED
2,Source-4,70212,3,LED
2,Source-4,70213,3,LED
2,Source-4,70214,3,LED
2,Source-4,70215,3,LED
2,Source-4,70216,3,LED
2,Source-4,70217,3,LED
2,Source-4,70218,3,LED
2,Source-4,70219,3,LED
2,Source-4,70220,3,LED
2,Source-4,70221,3,LED
2,Source-4,70222,3,LED
2,Source-4,70223,3,LED
2,Source-4,70224,3,LED
2,Source-4,70225,3,LED
2,Source-4,70226,3,LED
2,Source-4,70227,3,LED
2,Source-4,70228,3,LED
2,Source-4,70229,3,LED
2,Source-4,70230,3,LED
2,Source-4,70231,3,LED
2,Source-4,70232,3,LED
2,Source-4,70233,3,LED
2,Source-4,70234,3,LED
2,Source-4,70235,3,LED
2,Source-4,70236,3,LED
2,Source-4,70237,3,LED
2,Source-4,70238,3,LED
2,Source-4,70239,3,LED
2,Source-4,70240,3,LED
2,Source-4,70241,3,LED
2,Source-4,70242,3,LED
2,Source-4,70243,3,LED
2,Source-4,70244,3,LED
2,Source-4,70245,3,LED
2,Source-4,70246,3,LED
2,Source-4,70247,3,LED
2,Source-4,70248,3,LED
2,Source-4,70249,3,LED
2,Source-4,70250,3,LED
2,Source-4,70251,3,LED
2,Source-4,70252,3,LED
2,Source-4,70253,3,LED
2,Source-4,70254,3,LED
2,Source-4,70255,3,LED
2,Source-4,70256,3,LED
2,Source-4,70257,3,LED
2,Source-4,70258,3,LED
2,Source-4,70259,3,LED
2,Source-4,70260,3,LED
2,Source-4,70261,3,LED
2,Source-4,70262,3,LED
2,Source-4,70263,3,LED
2,Source-4,70264,3,LED
2,Source-4,70265,3,LED
2,Source-4,70266,3,LED
2,Source-4,70267,3,LED
2,Source-4,70268,3,LED
2,Source-4,70269,3,LED
2,Source-4,70270,3,LED
2,Source-4,70271,3,LED
2,Source-4,70272,3,LED
2,Source-4,70273,3,LED
2,Source-4,70274,3,LED
2,Source-4,70275,3,LED
2,Source-4,70276,3,LED
2,Source-4,70277,3,LED
2,Source-4,70278,3,LED
2,Source-4,70279,3,LED
2,Source-4,70280,3,LED
2,ColorForce,70281,1,LED
2,ColorForce,70282,1,LED
2,ColorForce,70283,1,LED
2,ColorForce,70284,1,LED
2,ColorForce,70285,1,LED
2,ColorForce,70286,1,LED
2,ColorForce,70287,1,LED
2,ColorForce,70288,1,LED
2,ColorForce,70289,1,LED
2,ColorForce,70290,1,LED
2,ColorForce,70291,1,LED
2,ColorForce,70292,2,LED
2,ColorForce,70293,2,LED
2,ColorForce,70294,2,LED
2,ColorForce,70295,2,LED
2,ColorForce,70296,2,LED
2,ColorForce,70297,2,LED
2,ColorForce,70298,2,LED
2,ColorForce,70299,2,LED
2,ColorForce,70300,2,LED
2,ColorForce,70301,2,LED
2,ColorForce,70302,2,LED
2,ColorForce,70303,2,LED
2,ColorForce,70304,3,LED
2,ColorForce,70305,3,LED
2,ColorForce,70306,3,LED
2,ColorForce,70307,3,LED
2,ColorForce,70308,3,LED
2,ColorForce,70309,3,LED
2,ColorForce,70310,3,LED
2,ColorForce,70311,3,LED
2,ColorForce,70312,3,LED
2,ColorForce,70313,3,LED
2,ColorForce,70314,3,LED
2,Mac2K,70315,1,2000
2,Mac2K,70316,1,2000
2,Mac2K,70317,1,2000
2,Mac2K,70318,1,2000
2,Mac2K,70319,1,2000
2,Mac2K,70320,1,2000
2,Mac2K,70321,1,2000
2,Mac2K,70322,1,2000
2,Mac2K,70323,1,2000
2,Mac2K,70324,1,2000
2,Mac2K,70325,1,2000
2,Mac2K,70326,1,2000
2,Mac2K,70327,2,2000
2,Mac2K,70328,2,2000
2,Mac2K,70329,2,2000
2,Mac2K,70330,2,2000
2,Mac2K,70331,2,2000
2,Mac2K,70332,2,2000
2,Mac2K,70333,2,2000
2,Mac2K,70334,2,2000
2,Mac2K,70335,3,2000
2,Mac2K,70336,3,2000
2,Mac2K,70337,3,2000
2,Mac2K,70338,3,2000
2,Mac2K,70339,3,2000
2,Mac2K,70340,3,2000
2,ParCan,70341,1,500
2,ParCan,70342,1,500
2,ParCan,70343,1,500
2,ParCan,70344,1,500
2,ParCan,70345,1,500
2,ParCan,70346,1,500
2,ParCan,70347,1,500
2,ParCan,70348,1,500
2,ParCan,70349,1,500
2,ParCan,70350,1,500
2,ParCan,70351,1,500
2,ParCan,70352,2,500
2,ParCan,70353,2,500
2,ParCan,70354,2,500
2,ParCan,70355,2,500
2,ParCan,70356,2,500
2,ParCan,70357,2,500
2,ParCan,70358,2,500
2,ParCan,70359,2,500
2,ParCan,70360,3,500
2,ParCan,70361,3,500
2,ParCan,70362,3,500
2,ParCan,70363,3,500
2,ParCan,70364,3,500
2,ParCan,70365,3,500
2,ParCan,70366,3,500
2,ParCan,70367,3,500
2,ParCan,70368,1,500
2,ParCan,70369,1,500
2,ParCan,70370,1,500
2,ParCan,70371,1,500
2,ParCan,70372,1,500
2,ParCan,70373,1,500
2,ParCan,70374,1,500
2,ParCan,70375,1,500
2,ParCan,70376,1,500
2,ParCan,70377,1,500
2,ParCan,70378,1,500
2,ParCan,70379,2,500
2,ParCan,70380,2,500
2,ParCan,70381,2,500
2,ParCan,70382,2,500
2,ParCan,70383,2,500
2,ParCan,70384,2,500
2,ParCan,70385,2,500
2,ParCan,70386,2,500
2,ParCan,70387,3,500
2,ParCan,70388,3,500
2,ParCan,70389,3,500
2,ParCan,70390,3,500
2,ParCan,70391,3,500
2,ParCan,70392,3,500
2,ParCan,70393,3,500
2,ParCan,70394,3,500
2,ParCan,70395,1,500
2,ParCan,70396,1,500
2,ParCan,70397,1,500
2,ParCan,70398,1,500
2,ParCan,70399,1,500
2,ParCan,70400,1,500
2,ParCan,70401,1,500
2,ParCan,70402,1,500
2,ParCan,70403,1,500
2,ParCan,70404,1,500
2,ParCan,70405,1,500
2,ParCan,70406,2,500
2,ParCan,70407,2,500
2,ParCan,70408,2,500
2,ParCan,70409,2,500
2,ParCan,70410,2,500
2,ParCan,70411,2,500
2,ParCan,70412,2,500
2,ParCan,70413,2,500
2,ParCan,70414,3,500
2,ParCan,70415,3,500
2,ParCan,70416,3,500
2,ParCan,70417,3,500
2,ParCan,70418,3,500
2,ParCan,70419,3,500
2,ParCan,70420,3,500
2,ParCan,70421,3,500
2,Fresnel,70422,1,LED
2,Fresnel,70423,1,LED
2,Fresnel,70424,1,LED
2,Fresnel,70425,1,LED
2,Fresnel,70426,1,LED
2,Fresnel,70427,1,LED
2,Fresnel,70428,1,LED
2,Fresnel,70429,1,LED
2,Fresnel,70430,1,LED
2,Fresnel,70431,1,LED
2,Fresnel,70432,1,LED
2,Fresnel,70433,1,LED
2,Fresnel,70434,1,LED
2,Fresnel,70435,1,LED
2,Fresnel,70436,1,LED
2,Fresnel,70437,2,LED
2,Fresnel,70438,2,LED
2,Fresnel,70439,2,LED
2,Fresnel,70440,2,LED
2,Fresnel,70441,2,LED
2,Fresnel,70442,2,LED
2,Fresnel,70443,2,LED
2,Fresnel,70444,2,LED
2,Fresnel,70445,2,LED
2,Fresnel,70446,2,LED
2,Fresnel,70447,2,LED
2,Fresnel,70448,2,LED
2,Fresnel,70449,2,LED
2,Fresnel,70450,2,LED
2,Fresnel,70451,2,LED
2,Fresnel,70452,2,LED
2,Fresnel,70453,3,LED
2,Fresnel,70454,3,LED
2,Fresnel,70455,3,LED
2,Fresnel,70456,3,LED
2,Fresnel,70457,3,LED
2,Fresnel,70458,3,LED
2,Fresnel,70459,3,LED
2,Fresnel,70460,3,LED
2,Fresnel,70461,3,LED
2,Fresnel,70462,3,LED
2,Fresnel,70463,3,LED
2,Fresnel,70464,3,LED
2,Fresnel,70465,3,LED
2,Fresnel,70466,3,LED
2,Fresnel,70467,3,LED
2,Fresnel,70468,3,LED
2,Fresnel,70469,3,LED
2,Fresnel,70470,3,LED
2,Fresnel,70471,3,LED