ID,LastName,FirstName,Email,StaffNumber,PhoneNumber,VenueID
6,Scott,Michael,mscott@dundermifflin.com,6,7175550177,1
7,White,Walter,wwhite@polloshermanos.com,7,5055558987,2
8,Rancher,Jolly,jrancher@hershey.co,8,8004681714,3
9,Bateman,Patrick,pbateman@pierceandpierce.com,9,2125556342,5
10,Goodman,Saul,sgoodman@bettercallsaul.com,10,5058425662,6