DepartmentID,Name,ID,VenueID,PolarPattern,CapsuleType
1,SM58,50001,1,Cardioid,Dynamic
1,SM57,50002,1,Cardioid,Dynamic
1,AKG414,50003,1,Figure-8,Condensor
1,MK-07,50004,1,Hyper-Cardioid,Condensor
1,MK-07,50005,1,Hyper-Cardioid,Condensor
1,AKG-D112,50006,1,Cardioid,Dynamic
1,SM52,50007,1,Cardioid,Dynamic
1,SM91,50008,1,Cardioid,Condensor
1,E604,50009,1,Cardioid,Dynamic
1,E906,50010,1,Cardioid,Dynamic
1,MD421,50011,1,Cardioid,Dynamic
1,MK-012,50012,1,Cardioid,Condensor
1,MKE-2,50013,1,Omni,Condensor
1,4099,50014,1,Cardioid,Condensor
1,4060,50015,1,Omni,Condensor
1,SM58,50016,1,Cardioid,Dynamic
1,SM57,50017,1,Cardioid,Dynamic
1,AKG414,50018,1,Figure-8,Condensor
1,MK-07,50019,1,Hyper-Cardioid,Condensor
1,MK-07,50020,1,Hyper-Cardioid,Condensor
1,AKG-D112,50021,1,Cardioid,Dynamic
1,SM52,50022,1,Cardioid,Dynamic
1,SM91,50023,1,Cardioid,Condensor
1,E604,50024,1,Cardioid,Dynamic
1,E906,50025,1,Cardioid,Dynamic
1,MD421,50026,1,Cardioid,Dynamic
1,MK-012,50027,1,Cardioid,Condensor
1,MKE-2,50028,1,Omni,Condensor
1,4099,50029,1,Cardioid,Condensor
1,4060,50030,1,Omni,Condensor
1,SM58,50031,1,Cardioid,Dynamic
1,SM57,50032,1,Cardioid,Dynamic
1,AKG414,50033,1,Figure-8,Condensor
1,MK-07,50034,1,Hyper-Cardioid,Condensor
1,MK-07,50035,1,Hyper-Cardioid,Condensor
1,AKG-D112,50036,1,Cardioid,Dynamic
1,SM52,50037,1,Cardioid,Dynamic
1,SM91,50038,1,Cardioid,Condensor
1,E604,50039,1,Cardioid,Dynamic
1,E906,50040,1,Cardioid,Dynamic
1,MD421,50041,1,Cardioid,Dynamic
1,MK-012,50042,1,Cardioid,Condensor
1,MKE-2,50043,1,Omni,Condensor
1,4099,50044,1,Cardioid,Condensor
1,4060,50045,1,Omni,Condensor
1,SM58,50046,1,Cardioid,Dynamic
1,SM57,50047,1,Cardioid,Dynamic
1,AKG414,50048,1,Figure-8,Condensor
1,MK-07,50049,1,Hyper-Cardioid,Condensor
1,MK-07,50050,1,Hyper-Cardioid,Condensor
1,AKG-D112,50051,1,Cardioid,Dynamic
1,SM52,50052,1,Cardioid,Dynamic
1,SM91,50053,1,Cardioid,Condensor
1,E604,50054,1,Cardioid,Dynamic
1,E906,50055,1,Cardioid,Dynamic
1,MD421,50056,1,Cardioid,Dynamic
1,MK-012,50057,1,Cardioid,Condensor
1,MKE-2,50058,1,Omni,Condensor
1,4099,50059,1,Cardioid,Condensor
1,4060,50060,1,Omni,Condensor
1,SM58,50061,1,Cardioid,Dynamic
1,SM57,50062,1,Cardioid,Dynamic
1,AKG414,50063,1,Figure-8,Condensor
1,MK-07,50064,1,Hyper-Cardioid,Condensor
1,MK-07,50065,1,Hyper-Cardioid,Condensor
1,AKG-D112,50066,1,Cardioid,Dynamic
1,SM52,50067,1,Cardioid,Dynamic
1,SM91,50068,1,Cardioid,Condensor
1,E604,50069,1,Cardioid,Dynamic
1,E906,50070,1,Cardioid,Dynamic
1,MD421,50071,1,Cardioid,Dynamic
1,MK-012,50072,1,Cardioid,Condensor
1,MKE-2,50073,1,Omni,Condensor
1,4099,50074,1,Cardioid,Condensor
1,4060,50075,1,Omni,Condensor
1,SM58,50076,1,Cardioid,Dynamic
1,SM57,50077,1,Cardioid,Dynamic
1,AKG414,50078,1,Figure-8,Condensor
1,MK-07,50079,1,Hyper-Cardioid,Condensor
1,MK-07,50080,1,Hyper-Cardioid,Condensor
1,AKG-D112,50081,1,Cardioid,Dynamic
1,SM52,50082,1,Cardioid,Dynamic
1,SM91,50083,1,Cardioid,Condensor
1,E604,50084,1,Cardioid,Dynamic
1,E906,50085,1,Cardioid,Dynamic
1,MD421,50086,1,Cardioid,Dynamic
1,MK-012,50087,1,Cardioid,Condensor
1,MKE-2,50088,1,Omni,Condensor
1,4099,50089,1,Cardioid,Condensor
1,4060,50090,1,Omni,Condensor
1,SM58,50091,2,Cardioid,Dynamic
1,SM57,50092,2,Cardioid,Dynamic
1,AKG414,50093,2,Figure-8,Condensor
1,MK-07,50094,2,Hyper-Cardioid,Condensor
1,MK-07,50095,2,Hyper-Cardioid,Condensor
1,AKG-D112,50096,2,Cardioid,Dynamic
1,SM52,50097,2,Cardioid,Dynamic
1,SM91,50098,2,Cardioid,Condensor
1,E604,50099,2,Cardioid,Dynamic
1,E906,50100,2,Cardioid,Dynamic
1,MD421,50101,2,Cardioid,Dynamic
1,MK-012,50102,2,Cardioid,Condensor
1,MKE-2,50103,2,Omni,Condensor
1,4099,50104,2,Cardioid,Condensor
1,4060,50105,2,Omni,Condensor
1,SM58,50106,2,Cardioid,Dynamic
1,SM57,50107,2,Cardioid,Dynamic
1,AKG414,50108,2,Figure-8,Condensor
1,MK-07,50109,2,Hyper-Cardioid,Condensor
1,MK-07,50110,2,Hyper-Cardioid,Condensor
1,AKG-D112,50111,2,Cardioid,Dynamic
1,SM52,50112,2,Cardioid,Dynamic
1,SM91,50113,2,Cardioid,Condensor
1,E604,50114,2,Cardioid,Dynamic
1,E906,50115,2,Cardioid,Dynamic
1,MD421,50116,2,Cardioid,Dynamic
1,MK-012,50117,2,Cardioid,Condensor
1,MKE-2,50118,2,Omni,Condensor
1,4099,50119,2,Cardioid,Condensor
1,4060,50120,2,Omni,Condensor
1,SM58,50121,2,Cardioid,Dynamic
1,SM57,50122,2,Cardioid,Dynamic
1,AKG414,50123,2,Figure-8,Condensor
1,MK-07,50124,2,Hyper-Cardioid,Condensor
1,MK-07,50125,2,Hyper-Cardioid,Condensor
1,AKG-D112,50126,2,Cardioid,Dynamic
1,SM52,50127,2,Cardioid,Dynamic
1,SM91,50128,2,Cardioid,Condensor
1,E604,50129,2,Cardioid,Dynamic
1,E906,50130,2,Cardioid,Dynamic
1,MD421,50131,2,Cardioid,Dynamic
1,MK-012,50132,2,Cardioid,Condensor
1,MKE-2,50133,2,Omni,Condensor
1,4099,50134,2,Cardioid,Condensor
1,4060,50135,2,Omni,Condensor
1,SM58,50136,2,Cardioid,Dynamic
1,SM57,50137,2,Cardioid,Dynamic
1,AKG414,50138,2,Figure-8,Condensor
1,MK-07,50139,2,Hyper-Cardioid,Condensor
1,MK-07,50140,2,Hyper-Cardioid,Condensor
1,AKG-D112,50141,2,Cardioid,Dynamic
1,SM52,50142,2,Cardioid,Dynamic
1,SM91,50143,2,Cardioid,Condensor
1,E604,50144,2,Cardioid,Dynamic
1,E906,50145,2,Cardioid,Dynamic
1,MD421,50146,2,Cardioid,Dynamic
1,MK-012,50147,2,Cardioid,Condensor
1,MKE-2,50148,2,Omni,Condensor
1,4099,50149,2,Cardioid,Condensor
1,4060,50150,2,Omni,Condensor
1,SM58,50151,2,Cardioid,Dynamic
1,SM57,50152,2,Cardioid,Dynamic
1,AKG414,50153,2,Figure-8,Condensor
1,MK-07,50154,2,Hyper-Cardioid,Condensor
1,MK-07,50155,2,Hyper-Cardioid,Condensor
1,AKG-D112,50156,2,Cardioid,Dynamic
1,SM52,50157,2,Cardioid,Dynamic
1,SM91,50158,2,Cardioid,Condensor
1,E604,50159,2,Cardioid,Dynamic
1,E906,50160,2,Cardioid,Dynamic
1,MD421,50161,2,Cardioid,Dynamic
1,MK-012,50162,2,Cardioid,Condensor
1,MKE-2,50163,2,Omni,Condensor
1,4099,50164,2,Cardioid,Condensor
1,4060,50165,2,Omni,Condensor
1,SM58,50166,2,Cardioid,Dynamic
1,SM57,50167,2,Cardioid,Dynamic
1,AKG414,50168,2,Figure-8,Condensor
1,MK-07,50169,2,Hyper-Cardioid,Condensor
1,MK-07,50170,2,Hyper-Cardioid,Condensor
1,AKG-D112,50171,2,Cardioid,Dynamic
1,SM52,50172,2,Cardioid,Dynamic
1,SM91,50173,2,Cardioid,Condensor
1,E604,50174,2,Cardioid,Dynamic
1,E906,50175,2,Cardioid,Dynamic
1,MD421,50176,2,Cardioid,Dynamic
1,MK-012,50177,2,Cardioid,Condensor
1,MKE-2,50178,2,Omni,Condensor
1,4099,50179,2,Cardioid,Condensor
1,4060,50180,2,Omni,Condensor
1,SM58,50181,1,Cardioid,Dynamic
1,SM57,50182,1,Cardioid,Dynamic
1,SM58,50183,1,Cardioid,Dynamic
1,SM57,50184,1,Cardioid,Dynamic
1,SM58,50185,1,Cardioid,Dynamic
1,SM57,50186,1,Cardioid,Dynamic
1,SM58,50187,1,Cardioid,Dynamic
1,SM57,50188,1,Cardioid,Dynamic
1,SM58,50189,1,Cardioid,Dynamic
1,SM57,50190,1,Cardioid,Dynamic
1,SM58,50191,1,Cardioid,Dynamic
1,SM57,50192,1,Cardioid,Dynamic
1,SM58,50193,2,Cardioid,Dynamic
1,SM57,50194,2,Cardioid,Dynamic
1,SM58,50195,2,Cardioid,Dynamic
1,SM57,50196,2,Cardioid,Dynamic
1,SM58,50197,2,Cardioid,Dynamic
1,SM57,50198,2,Cardioid,Dynamic
1,SM58,50199,2,Cardioid,Dynamic
1,SM57,50200,2,Cardioid,Dynamic
1,SM58,50201,2,Cardioid,Dynamic
1,SM57,50202,2,Cardioid,Dynamic
1,SM58,50203,2,Cardioid,Dynamic
1,SM57,50204,2,Cardioid,Dynamic
1,SM58,50205,3,Cardioid,Dynamic
1,SM57,50206,3,Cardioid,Dynamic
1,SM58,50207,3,Cardioid,Dynamic
1,SM57,50208,3,Cardioid,Dynamic
1,SM58,50209,3,Cardioid,Dynamic
1,SM57,50210,3,Cardioid,Dynamic
1,SM58,50211,3,Cardioid,Dynamic
1,SM57,50212,3,Cardioid,Dynamic
1,SM58,50213,3,Cardioid,Dynamic
1,SM57,50214,3,Cardioid,Dynamic
1,SM58,50215,3,Cardioid,Dynamic
1,SM57,50216,3,Cardioid,Dynamic
1,MKE-2,50217,1,Omni,Condensor
1,4060,50218,1,Omni,Condensor
1,MKE-2,50219,1,Omni,Condensor
1,4060,50220,1,Omni,Condensor
1,MKE-2,50221,1,Omni,Condensor
1,4060,50222,1,Omni,Condensor
1,MKE-2,50223,1,Omni,Condensor
1,4060,50224,1,Omni,Condensor
1,MKE-2,50225,1,Omni,Condensor
1,4060,50226,1,Omni,Condensor
1,MKE-2,50227,1,Omni,Condensor
1,4060,50228,1,Omni,Condensor
1,MKE-2,50229,1,Omni,Condensor
1,4060,50230,1,Omni,Condensor
1,MKE-2,50231,1,Omni,Condensor
1,4060,50232,1,Omni,Condensor
1,MKE-2,50233,1,Omni,Condensor
1,4060,50234,1,Omni,Condensor
1,MKE-2,50235,1,Omni,Condensor
1,4060,50236,1,Omni,Condensor
1,MKE-2,50237,1,Omni,Condensor
1,4060,50238,1,Omni,Condensor
1,MKE-2,50239,1,Omni,Condensor
1,4060,50240,1,Omni,Condensor
1,MKE-2,50241,1,Omni,Condensor
1,4060,50242,1,Omni,Condensor
1,MKE-2,50243,1,Omni,Condensor
1,MKE-2,50244,2,Omni,Condensor
1,4060,50245,2,Omni,Condensor
1,MKE-2,50246,2,Omni,Condensor
1,4060,50247,2,Omni,Condensor
1,MKE-2,50248,2,Omni,Condensor
1,4060,50249,2,Omni,Condensor
1,MKE-2,50250,2,Omni,Condensor
1,4060,50251,2,Omni,Condensor
1,MKE-2,50252,2,Omni,Condensor
1,4060,50253,2,Omni,Condensor
1,MKE-2,50254,2,Omni,Condensor
1,4060,50255,2,Omni,Condensor
1,MKE-2,50256,2,Omni,Condensor
1,4060,50257,2,Omni,Condensor