ID,Lastname,FirstName,Email,StaffNumber,Phone,DepartmentID
1,Rezousky,Bob ,brezousky@sfu.ca,1,7788634586,2
2,Cooper,Alice,acooper@rock.com,2,2501111919,1
3,Norris,Chuck,cnorris@chucknorris.com,3,2363364365,3
4,Anderson,Mister,manderson@thematrix.com,4,6046365769,3
5,Rogers,Jolly,jrogers@pirates.co,5,7787797710,2